<?xml version="1.0" encoding="UTF-8" standalone="no"?>
<!-- Created with Inkscape (http://www.inkscape.org/) -->

<svg
   xmlns:dc="http://purl.org/dc/elements/1.1/"
   xmlns:cc="http://creativecommons.org/ns#"
   xmlns:rdf="http://www.w3.org/1999/02/22-rdf-syntax-ns#"
   xmlns:svg="http://www.w3.org/2000/svg"
   xmlns="http://www.w3.org/2000/svg"
   xmlns:xlink="http://www.w3.org/1999/xlink"
   xmlns:sodipodi="http://sodipodi.sourceforge.net/DTD/sodipodi-0.dtd"
   xmlns:inkscape="http://www.inkscape.org/namespaces/inkscape"
   width="372.67145"
   height="306.20215"
   id="svg2"
   version="1.1"
   inkscape:version="0.48.4 r9939"
   sodipodi:docname="error.svg">
  <defs
     id="defs4">
    <linearGradient
       id="linearGradient3824">
      <stop
         id="stop3826"
         style="stop-color:#cccccc;stop-opacity:1"
         offset="0" />
      <stop
         id="stop3828"
         style="stop-color:#e6e6e6;stop-opacity:1"
         offset="1" />
    </linearGradient>
    <linearGradient
       y2="1503.4989"
       x2="1393"
       y1="1621"
       x1="1393"
       gradientUnits="userSpaceOnUse"
       id="linearGradient3196"
       xlink:href="#linearGradient2824"
       inkscape:collect="always" />
    <linearGradient
       y2="1503.4989"
       x2="1393"
       y1="1621"
       x1="1393"
       gradientUnits="userSpaceOnUse"
       id="linearGradient2612"
       xlink:href="#linearGradient2824"
       inkscape:collect="always" />
    <linearGradient
       y2="1503.4989"
       x2="1393"
       y1="1621"
       x1="1393"
       gradientUnits="userSpaceOnUse"
       id="linearGradient2584"
       xlink:href="#linearGradient2824"
       inkscape:collect="always" />
    <linearGradient
       y2="1317.7673"
       x2="1378.245"
       y1="1591.7328"
       x1="1378.245"
       gradientUnits="userSpaceOnUse"
       id="linearGradient2582"
       xlink:href="#linearGradient2961"
       inkscape:collect="always" />
    <linearGradient
       y2="1421.7056"
       x2="1496.5941"
       y1="1399.2305"
       x1="1496.5941"
       gradientTransform="translate(0,220.2189)"
       gradientUnits="userSpaceOnUse"
       id="linearGradient2580"
       xlink:href="#linearGradient4261"
       inkscape:collect="always" />
    <linearGradient
       y2="1271.0376"
       x2="16232.744"
       y1="1278.8907"
       x1="16232.744"
       gradientUnits="userSpaceOnUse"
       id="linearGradient2543"
       xlink:href="#linearGradient3484"
       inkscape:collect="always" />
    <linearGradient
       y2="1271.0376"
       x2="16232.744"
       y1="1278.8907"
       x1="16232.744"
       gradientUnits="userSpaceOnUse"
       id="linearGradient2541"
       xlink:href="#linearGradient3484"
       inkscape:collect="always" />
    <linearGradient
       y2="1271.0376"
       x2="16232.744"
       y1="1278.8907"
       x1="16232.744"
       gradientUnits="userSpaceOnUse"
       id="linearGradient2539"
       xlink:href="#linearGradient3484"
       inkscape:collect="always" />
    <linearGradient
       y2="1298.1632"
       x2="16233.404"
       y1="1292.1682"
       x1="16232.744"
       gradientUnits="userSpaceOnUse"
       id="linearGradient2537"
       xlink:href="#linearGradient3462"
       inkscape:collect="always" />
    <linearGradient
       y2="1269.9178"
       x2="16223.151"
       y1="1291.4821"
       x1="16223.151"
       gradientUnits="userSpaceOnUse"
       id="linearGradient2535"
       xlink:href="#linearGradient3496"
       inkscape:collect="always" />
    <linearGradient
       y2="1278.5294"
       x2="16233.404"
       y1="1309.0703"
       x1="16233.404"
       gradientUnits="userSpaceOnUse"
       id="linearGradient2533"
       xlink:href="#linearGradient3144"
       inkscape:collect="always" />
    <linearGradient
       y2="1279.0703"
       x2="16223.151"
       y1="1308.8616"
       x1="16223.151"
       gradientUnits="userSpaceOnUse"
       id="linearGradient2531"
       xlink:href="#linearGradient3144"
       inkscape:collect="always" />
    <linearGradient
       y2="1278.5955"
       x2="16234.021"
       y1="1319.4352"
       x1="16234.021"
       gradientUnits="userSpaceOnUse"
       id="linearGradient2529"
       xlink:href="#linearGradient3226"
       inkscape:collect="always" />
    <radialGradient
       r="2.0625"
       fy="306.61414"
       fx="572.375"
       cy="306.61414"
       cx="572.375"
       gradientUnits="userSpaceOnUse"
       id="radialGradient2481"
       xlink:href="#linearGradient2986"
       inkscape:collect="always" />
    <linearGradient
       gradientUnits="userSpaceOnUse"
       xlink:href="#linearGradient3484"
       id="linearGradient3425"
       y2="1271.0376"
       x2="16232.744"
       y1="1278.8907"
       x1="16232.744" />
    <linearGradient
       gradientUnits="userSpaceOnUse"
       xlink:href="#linearGradient3484"
       id="linearGradient3423"
       y2="1271.0376"
       x2="16232.744"
       y1="1278.8907"
       x1="16232.744" />
    <linearGradient
       gradientUnits="userSpaceOnUse"
       xlink:href="#linearGradient3484"
       id="linearGradient3421"
       y2="1271.0376"
       x2="16232.744"
       y1="1278.8907"
       x1="16232.744" />
    <linearGradient
       gradientUnits="userSpaceOnUse"
       xlink:href="#linearGradient3462"
       id="linearGradient3419"
       y2="1298.1632"
       x2="16233.404"
       y1="1292.1682"
       x1="16232.744" />
    <linearGradient
       gradientUnits="userSpaceOnUse"
       xlink:href="#linearGradient3496"
       id="linearGradient3417"
       y2="1269.9178"
       x2="16223.151"
       y1="1291.4821"
       x1="16223.151" />
    <linearGradient
       gradientUnits="userSpaceOnUse"
       xlink:href="#linearGradient3144"
       id="linearGradient3415"
       y2="1278.5294"
       x2="16233.404"
       y1="1309.0703"
       x1="16233.404" />
    <linearGradient
       gradientUnits="userSpaceOnUse"
       xlink:href="#linearGradient3144"
       id="linearGradient3413"
       y2="1279.0703"
       x2="16223.151"
       y1="1308.8616"
       x1="16223.151" />
    <linearGradient
       gradientUnits="userSpaceOnUse"
       xlink:href="#linearGradient3226"
       id="linearGradient3411"
       y2="1278.5955"
       x2="16234.021"
       y1="1319.4352"
       x1="16234.021" />
    <radialGradient
       gradientUnits="userSpaceOnUse"
       xlink:href="#linearGradient2986"
       id="radialGradient3409"
       fy="306.61414"
       fx="572.375"
       r="2.0625"
       cy="306.61414"
       cx="572.375" />
    <linearGradient
       gradientUnits="userSpaceOnUse"
       xlink:href="#linearGradient2824"
       id="linearGradient3407"
       y2="1503.4989"
       x2="1393"
       y1="1621"
       x1="1393" />
    <linearGradient
       spreadMethod="pad"
       gradientTransform="translate(-244.0007,1175.5743)"
       gradientUnits="userSpaceOnUse"
       xlink:href="#linearGradient3462"
       id="linearGradient2430"
       y2="155.9931"
       x2="1474.5"
       y1="165.00005"
       x1="1474.5" />
    <linearGradient
       gradientUnits="userSpaceOnUse"
       xlink:href="#linearGradient2961"
       id="linearGradient2428"
       y2="1317.7673"
       x2="1378.245"
       y1="1591.7328"
       x1="1378.245" />
    <radialGradient
       gradientTransform="matrix(0,1.399188,-1.594814,0,1057.2627,-965.74674)"
       gradientUnits="userSpaceOnUse"
       xlink:href="#linearGradient2894"
       id="radialGradient2426"
       fy="-95.418106"
       fx="809.30115"
       r="883.59497"
       cy="-95.418106"
       cx="809.30115" />
    <linearGradient
       gradientTransform="matrix(0.2015315,0,0,0.2015315,98.831094,36.358051)"
       gradientUnits="userSpaceOnUse"
       xlink:href="#linearGradient3396"
       id="linearGradient3321"
       y2="1651.3101"
       x2="2124.1465"
       y1="1651.3101"
       x1="797.46997" />
    <linearGradient
       gradientTransform="matrix(0.2015315,0,0,0.2015315,98.831094,36.358051)"
       gradientUnits="userSpaceOnUse"
       xlink:href="#linearGradient5104"
       id="linearGradient3319"
       y2="1666.7496"
       x2="1667.4093"
       y1="1664.9952"
       x1="1282.1143" />
    <linearGradient
       gradientTransform="matrix(0.4598921,0,0,0.343815,-277.84244,-196.48888)"
       gradientUnits="userSpaceOnUse"
       xlink:href="#linearGradient3442"
       id="linearGradient3306"
       y2="1623.5524"
       x2="1455.5544"
       y1="1638.8879"
       x1="1455.5544" />
    <linearGradient
       gradientTransform="matrix(0.4598921,0,0,0.343815,-277.84244,-196.48888)"
       gradientUnits="userSpaceOnUse"
       xlink:href="#linearGradient3434"
       id="linearGradient3304"
       y2="1622.3103"
       x2="1466.9581"
       y1="1639.5211"
       x1="1466.9583" />
    <linearGradient
       gradientTransform="translate(0,220.2189)"
       gradientUnits="userSpaceOnUse"
       xlink:href="#linearGradient4261"
       id="linearGradient3293"
       y2="1421.7056"
       x2="1496.5941"
       y1="1399.2305"
       x1="1496.5941" />
    <linearGradient
       gradientTransform="translate(0.07080385,0)"
       gradientUnits="userSpaceOnUse"
       xlink:href="#linearGradient3392"
       id="linearGradient3287"
       y2="1648.9484"
       x2="1991.4709"
       y1="1648.9484"
       x1="1470.4292" />
    <linearGradient
       gradientUnits="userSpaceOnUse"
       xlink:href="#linearGradient3012"
       id="linearGradient3285"
       y2="1651.3101"
       x2="2040.9473"
       y1="1695.5"
       x1="2051" />
    <linearGradient
       gradientTransform="translate(0.07080385,0)"
       gradientUnits="userSpaceOnUse"
       xlink:href="#linearGradient3390"
       id="linearGradient3283"
       y2="1648.9484"
       x2="1991.4709"
       y1="1648.9484"
       x1="1470.4292" />
    <linearGradient
       gradientUnits="userSpaceOnUse"
       xlink:href="#linearGradient3012"
       id="linearGradient3281"
       y2="1651.3101"
       x2="2040.9473"
       y1="1695.5"
       x1="2051" />
    <radialGradient
       gradientTransform="matrix(1.3593325,0,0,1.1537756,-583.3877,-53.549185)"
       gradientUnits="userSpaceOnUse"
       xlink:href="#linearGradient2986"
       id="radialGradient2980"
       fy="255.33945"
       fx="642.47363"
       r="193.23264"
       cy="251.92842"
       cx="642.70856" />
    <filter
       id="filter4964"
       x="-0.085544415"
       width="1.1710888"
       y="-0.45851797"
       height="1.9170359"
       color-interpolation-filters="sRGB">
      <feGaussianBlur
         inkscape:collect="always"
         stdDeviation="74.603147"
         id="feGaussianBlur4966" />
    </filter>
    <linearGradient
       spreadMethod="reflect"
       gradientTransform="translate(-244.0007,1175.5743)"
       gradientUnits="userSpaceOnUse"
       xlink:href="#linearGradient3575"
       id="linearGradient4864"
       y2="159.46629"
       x2="1474.5"
       y1="165.46629"
       x1="1474.5" />
    <linearGradient
       spreadMethod="reflect"
       gradientTransform="translate(-244.0007,1175.5743)"
       gradientUnits="userSpaceOnUse"
       xlink:href="#linearGradient2932"
       id="linearGradient4844"
       y2="160.90567"
       x2="1418.8616"
       y1="160.90567"
       x1="512.05188" />
    <linearGradient
       spreadMethod="reflect"
       gradientTransform="translate(-244.0007,-56.95946)"
       gradientUnits="userSpaceOnUse"
       xlink:href="#linearGradient2920"
       id="linearGradient4842"
       y2="160.90567"
       x2="1418.8616"
       y1="160.90567"
       x1="522.55194" />
    <linearGradient
       gradientTransform="translate(-244.0007,-56.95946)"
       gradientUnits="userSpaceOnUse"
       xlink:href="#linearGradient2894"
       id="linearGradient4840"
       y2="216.13748"
       x2="1461.9432"
       y1="1332.228"
       x1="1461.9432" />
    <linearGradient
       gradientTransform="translate(-244.0007,-56.95946)"
       gradientUnits="userSpaceOnUse"
       xlink:href="#linearGradient2910"
       id="linearGradient4838"
       y2="164.23206"
       x2="978.6358"
       y1="1373.5938"
       x1="978.6358" />
    <radialGradient
       gradientTransform="matrix(1.2937869,0,0,0.2413781,-604.2519,1193.993)"
       gradientUnits="userSpaceOnUse"
       xlink:href="#linearGradient3849"
       id="radialGradient4816"
       fy="1309.3545"
       fx="1369.1777"
       r="758.01849"
       cy="2066.5583"
       cx="1380.2725" />
    <linearGradient
       gradientTransform="matrix(0.1718472,0,0,0.1331641,23.588094,72.324175)"
       gradientUnits="userSpaceOnUse"
       xlink:href="#linearGradient3012"
       id="linearGradient4235"
       y2="2261.4731"
       x2="2143.9998"
       y1="-103.93334"
       x1="2143.9998" />
    <linearGradient
       gradientUnits="userSpaceOnUse"
       xlink:href="#linearGradient2790"
       id="linearGradient3043"
       y2="1394.6783"
       x2="1378.245"
       y1="1591.7328"
       x1="1378.245" />
    <filter
       id="filter3510"
       color-interpolation-filters="sRGB">
      <feGaussianBlur
         inkscape:collect="always"
         stdDeviation="0.9434504"
         id="feGaussianBlur3512" />
    </filter>
    <filter
       id="filter3490"
       color-interpolation-filters="sRGB">
      <feGaussianBlur
         inkscape:collect="always"
         stdDeviation="0.4537252"
         id="feGaussianBlur3492" />
    </filter>
    <filter
       id="filter3472"
       color-interpolation-filters="sRGB">
      <feGaussianBlur
         inkscape:collect="always"
         stdDeviation="0.54447024"
         id="feGaussianBlur3474" />
    </filter>
    <filter
       id="filter3368"
       color-interpolation-filters="sRGB">
      <feGaussianBlur
         inkscape:collect="always"
         stdDeviation="0.59514119"
         id="feGaussianBlur3370" />
    </filter>
    <filter
       id="filter3248"
       color-interpolation-filters="sRGB">
      <feGaussianBlur
         inkscape:collect="always"
         stdDeviation="0.35153634"
         id="feGaussianBlur3250" />
    </filter>
    <filter
       id="filter3052"
       color-interpolation-filters="sRGB">
      <feGaussianBlur
         inkscape:collect="always"
         stdDeviation="0.89271179"
         id="feGaussianBlur3054" />
    </filter>
    <clipPath
       id="clipPath2834">
      <path
         style="fill:url(#linearGradient3043)"
         id="use2836"
         d="m 1345.5371,1395.181 233.2406,0 c 1.0216,0 1.8441,0.8225 1.8441,1.8441 l 0,222.2716 c 0,1.0216 -0.8225,1.8441 -1.8441,1.8441 -77.6182,-4.3955 -155.6194,-3.5999 -233.2406,0 -1.0216,0 -1.8441,-0.8225 -1.8441,-1.8441 l 0,-222.2716 c 0,-1.0216 0.8225,-1.8441 1.8441,-1.8441 z"
         inkscape:connector-curvature="0" />
    </clipPath>
    <filter
       id="filter2820"
       color-interpolation-filters="sRGB">
      <feGaussianBlur
         inkscape:collect="always"
         stdDeviation="0.49668993"
         id="feGaussianBlur2822" />
    </filter>
    <linearGradient
       id="linearGradient2790">
      <stop
         offset="0"
         style="stop-color:#8c909b;stop-opacity:1"
         id="stop2792" />
      <stop
         offset="1"
         style="stop-color:#787c87;stop-opacity:1"
         id="stop2794" />
    </linearGradient>
    <linearGradient
       id="linearGradient2824">
      <stop
         offset="0"
         style="stop-color:#4c5059;stop-opacity:1"
         id="stop2826" />
      <stop
         offset="1"
         style="stop-color:#818590;stop-opacity:1"
         id="stop2828" />
    </linearGradient>
    <linearGradient
       id="linearGradient2894">
      <stop
         offset="0"
         style="stop-color:#5e6169;stop-opacity:1"
         id="stop2896" />
      <stop
         offset="1"
         style="stop-color:#1c2125;stop-opacity:1"
         id="stop2898" />
    </linearGradient>
    <linearGradient
       id="linearGradient2910">
      <stop
         offset="0"
         style="stop-color:#1d2025;stop-opacity:1"
         id="stop2912" />
      <stop
         offset="1"
         style="stop-color:#31343b;stop-opacity:1"
         id="stop2914" />
    </linearGradient>
    <linearGradient
       id="linearGradient2920">
      <stop
         offset="0"
         style="stop-color:#abafb8;stop-opacity:1"
         id="stop2922" />
      <stop
         offset="1"
         style="stop-color:#bebdc5;stop-opacity:1"
         id="stop2924" />
    </linearGradient>
    <linearGradient
       id="linearGradient2932">
      <stop
         offset="0"
         style="stop-color:#8f919d;stop-opacity:1"
         id="stop2934" />
      <stop
         offset="1"
         style="stop-color:#878a95;stop-opacity:1"
         id="stop2936" />
    </linearGradient>
    <linearGradient
       id="linearGradient3012">
      <stop
         offset="0"
         style="stop-color:#53555a;stop-opacity:1"
         id="stop3014" />
      <stop
         offset="1"
         style="stop-color:#e7e8ec;stop-opacity:1"
         id="stop3016" />
    </linearGradient>
    <linearGradient
       id="linearGradient3144">
      <stop
         offset="0"
         style="stop-color:#6b6f7a;stop-opacity:1"
         id="stop3146" />
      <stop
         offset="1"
         style="stop-color:#c7c7cd;stop-opacity:1"
         id="stop3148" />
    </linearGradient>
    <linearGradient
       id="linearGradient3226">
      <stop
         offset="0"
         style="stop-color:#0b1014;stop-opacity:1"
         id="stop3228" />
      <stop
         offset="1"
         style="stop-color:#111119;stop-opacity:1"
         id="stop3230" />
    </linearGradient>
    <linearGradient
       id="linearGradient3390">
      <stop
         offset="0"
         style="stop-color:#9c9eaa;stop-opacity:1"
         id="stop3392" />
      <stop
         offset="0.16566548"
         style="stop-color:#32373b;stop-opacity:1"
         id="stop3412" />
      <stop
         offset="0.20498471"
         style="stop-color:#9c9ea9;stop-opacity:1"
         id="stop3414" />
      <stop
         offset="0.23578803"
         style="stop-color:#363b3f;stop-opacity:1"
         id="stop3416" />
      <stop
         offset="0.74123603"
         style="stop-color:#515257;stop-opacity:1"
         id="stop3418" />
      <stop
         offset="1"
         style="stop-color:#4a4f53;stop-opacity:1"
         id="stop3394" />
    </linearGradient>
    <linearGradient
       id="linearGradient3396">
      <stop
         offset="0"
         style="stop-color:#000000;stop-opacity:1"
         id="stop3398" />
      <stop
         offset="1"
         style="stop-color:#000000;stop-opacity:0"
         id="stop3400" />
    </linearGradient>
    <linearGradient
       id="linearGradient3434">
      <stop
         offset="0"
         style="stop-color:#b5b7bb;stop-opacity:1"
         id="stop3436" />
      <stop
         offset="1"
         style="stop-color:#e5e6ea;stop-opacity:1"
         id="stop3438" />
    </linearGradient>
    <linearGradient
       id="linearGradient3442">
      <stop
         offset="0"
         style="stop-color:#888b95;stop-opacity:1"
         id="stop3444" />
      <stop
         offset="1"
         style="stop-color:#f0f1f5;stop-opacity:1"
         id="stop3446" />
    </linearGradient>
    <linearGradient
       id="linearGradient3462">
      <stop
         offset="0"
         style="stop-color:#6b6f7a;stop-opacity:0"
         id="stop3464" />
      <stop
         offset="1"
         style="stop-color:#ebebed;stop-opacity:1"
         id="stop3466" />
    </linearGradient>
    <linearGradient
       id="linearGradient3484">
      <stop
         offset="0"
         style="stop-color:#6b6f7a;stop-opacity:0"
         id="stop3486" />
      <stop
         offset="1"
         style="stop-color:#ffffff;stop-opacity:1"
         id="stop3488" />
    </linearGradient>
    <linearGradient
       id="linearGradient3496">
      <stop
         offset="0"
         style="stop-color:#656873;stop-opacity:1"
         id="stop3498" />
      <stop
         offset="1"
         style="stop-color:#c7c7cd;stop-opacity:1"
         id="stop3500" />
    </linearGradient>
    <linearGradient
       id="linearGradient3575">
      <stop
         offset="0"
         style="stop-color:#575a62;stop-opacity:0.99967307"
         id="stop3577" />
      <stop
         offset="1"
         style="stop-color:#878a95;stop-opacity:0"
         id="stop3579" />
    </linearGradient>
    <linearGradient
       id="linearGradient3849">
      <stop
         offset="0"
         style="stop-color:#000000;stop-opacity:0.33480176"
         id="stop3851" />
      <stop
         offset="1"
         style="stop-color:#000000;stop-opacity:0"
         id="stop3853" />
    </linearGradient>
    <linearGradient
       id="linearGradient2961">
      <stop
         offset="0"
         style="stop-color:#979aa4;stop-opacity:1"
         id="stop2963" />
      <stop
         offset="1"
         style="stop-color:#50525a;stop-opacity:1;"
         id="stop2965" />
    </linearGradient>
    <linearGradient
       id="linearGradient4261">
      <stop
         offset="0"
         style="stop-color:#979aa4;stop-opacity:1"
         id="stop4263" />
      <stop
         offset="1"
         style="stop-color:#979aa4;stop-opacity:0"
         id="stop4265" />
    </linearGradient>
    <linearGradient
       id="linearGradient5104">
      <stop
         offset="0"
         style="stop-color:#16191e;stop-opacity:1"
         id="stop5106" />
      <stop
         offset="0.16348946"
         style="stop-color:#3a3d43;stop-opacity:1"
         id="stop5116" />
      <stop
         offset="0.23888482"
         style="stop-color:#16191e;stop-opacity:1"
         id="stop3708" />
      <stop
         offset="0.46133989"
         style="stop-color:#4a4f56;stop-opacity:1"
         id="stop5112" />
      <stop
         offset="0.66194218"
         style="stop-color:#16191e;stop-opacity:1"
         id="stop3710" />
      <stop
         offset="0.75"
         style="stop-color:#36393f;stop-opacity:1"
         id="stop5114" />
      <stop
         offset="1"
         style="stop-color:#16191e;stop-opacity:1"
         id="stop5108" />
    </linearGradient>
    <linearGradient
       id="linearGradient2986">
      <stop
         offset="0"
         style="stop-color:#cccccc;stop-opacity:1"
         id="stop2988" />
      <stop
         offset="1"
         style="stop-color:#c1c1c1;stop-opacity:0"
         id="stop2990" />
    </linearGradient>
    <text
       sodipodi:linespacing="125%"
       style="font-size:43.30118561px;font-style:normal;font-variant:normal;font-weight:bold;font-stretch:normal;text-align:center;line-height:125%;letter-spacing:2;writing-mode:lr-tb;text-anchor:middle;font-family:Liberation Sans"
       xml:space="preserve"
       id="text3138"
       y="1298.8616"
       x="16216.638"><tspan
         id="tspan3140"
         y="1298.8616"
         x="16216.638">LINUX</tspan></text>
    <linearGradient
       id="linearGradient3392">
      <stop
         offset="0"
         style="stop-color:#9c9eaa;stop-opacity:1"
         id="stop3395" />
      <stop
         offset="0.16566548"
         style="stop-color:#32373b;stop-opacity:1"
         id="stop3397" />
      <stop
         offset="0.20498471"
         style="stop-color:#868896;stop-opacity:1"
         id="stop3399" />
      <stop
         offset="0.23578803"
         style="stop-color:#363b3f;stop-opacity:1"
         id="stop3401" />
      <stop
         offset="0.74123603"
         style="stop-color:#515257;stop-opacity:1"
         id="stop3403" />
      <stop
         offset="1"
         style="stop-color:#4a4f53;stop-opacity:1"
         id="stop3405" />
    </linearGradient>
    <linearGradient
       inkscape:collect="always"
       xlink:href="#linearGradient3012"
       id="linearGradient3736"
       gradientUnits="userSpaceOnUse"
       x1="2051"
       y1="1695.5"
       x2="2040.9473"
       y2="1651.3101" />
    <linearGradient
       inkscape:collect="always"
       xlink:href="#linearGradient3390"
       id="linearGradient3738"
       gradientUnits="userSpaceOnUse"
       gradientTransform="translate(0.07080385,0)"
       x1="1470.4292"
       y1="1648.9484"
       x2="1991.4709"
       y2="1648.9484" />
    <linearGradient
       inkscape:collect="always"
       xlink:href="#linearGradient3012"
       id="linearGradient3740"
       gradientUnits="userSpaceOnUse"
       x1="2051"
       y1="1695.5"
       x2="2040.9473"
       y2="1651.3101" />
    <linearGradient
       inkscape:collect="always"
       xlink:href="#linearGradient3392"
       id="linearGradient3742"
       gradientUnits="userSpaceOnUse"
       gradientTransform="translate(0.07080385,0)"
       x1="1470.4292"
       y1="1648.9484"
       x2="1991.4709"
       y2="1648.9484" />
    <linearGradient
       inkscape:collect="always"
       xlink:href="#linearGradient2824"
       id="linearGradient3752"
       gradientUnits="userSpaceOnUse"
       x1="1393"
       y1="1621"
       x2="1393"
       y2="1503.4989" />
    <linearGradient
       inkscape:collect="always"
       xlink:href="#linearGradient3462"
       id="linearGradient3773"
       gradientUnits="userSpaceOnUse"
       gradientTransform="matrix(0.1968032,0,0,0.1968032,-95.22859,215.53881)"
       spreadMethod="pad"
       x1="1474.5"
       y1="165.00005"
       x2="1474.5"
       y2="155.9931" />
    <linearGradient
       inkscape:collect="always"
       xlink:href="#linearGradient3575"
       id="linearGradient3776"
       gradientUnits="userSpaceOnUse"
       gradientTransform="matrix(0.1968032,0,0,0.1968032,-95.22859,215.53881)"
       spreadMethod="reflect"
       x1="1474.5"
       y1="165.46629"
       x2="1474.5"
       y2="159.46629" />
    <radialGradient
       inkscape:collect="always"
       xlink:href="#linearGradient3824"
       id="radialGradient3779"
       gradientUnits="userSpaceOnUse"
       gradientTransform="matrix(-0.03916115,0.32154391,-0.23783628,-0.02896631,204.96365,-313.42708)"
       cx="1116.4095"
       cy="-94.593346"
       fx="1116.4095"
       fy="-94.593346"
       r="883.59497" />
    <linearGradient
       inkscape:collect="always"
       xlink:href="#linearGradient2932"
       id="linearGradient3782"
       gradientUnits="userSpaceOnUse"
       gradientTransform="matrix(0.1968032,0,0,0.1968032,-95.22859,215.53881)"
       spreadMethod="reflect"
       x1="512.05188"
       y1="160.90567"
       x2="1418.8616"
       y2="160.90567" />
    <linearGradient
       inkscape:collect="always"
       xlink:href="#linearGradient2920"
       id="linearGradient3785"
       gradientUnits="userSpaceOnUse"
       gradientTransform="matrix(0.1968032,0,0,0.1968032,-95.22859,-27.027781)"
       spreadMethod="reflect"
       x1="522.55194"
       y1="160.90567"
       x2="1418.8616"
       y2="160.90567" />
    <linearGradient
       inkscape:collect="always"
       xlink:href="#linearGradient2894"
       id="linearGradient3788"
       gradientUnits="userSpaceOnUse"
       gradientTransform="matrix(0.1968032,0,0,0.1968032,-95.22859,-27.027781)"
       x1="1461.9432"
       y1="1332.228"
       x2="1461.9432"
       y2="216.13748" />
    <linearGradient
       inkscape:collect="always"
       xlink:href="#linearGradient2910"
       id="linearGradient3791"
       gradientUnits="userSpaceOnUse"
       gradientTransform="matrix(0.1968032,0,0,0.1968032,-95.22859,-27.027781)"
       x1="978.6358"
       y1="1373.5938"
       x2="978.6358"
       y2="164.23206" />
    <linearGradient
       inkscape:collect="always"
       xlink:href="#linearGradient2961"
       id="linearGradient3799"
       gradientUnits="userSpaceOnUse"
       gradientTransform="matrix(0.1968032,0,0,0.1968032,-96.944694,-27.02778)"
       x1="1364.6559"
       y1="1540.0939"
       x2="1367.3737"
       y2="1342.2279" />
    <linearGradient
       inkscape:collect="always"
       xlink:href="#linearGradient4261"
       id="linearGradient3802"
       gradientUnits="userSpaceOnUse"
       gradientTransform="matrix(0.1968032,0,0,0.1968032,-96.944694,16.312004)"
       x1="1496.5941"
       y1="1399.2305"
       x2="1496.5941"
       y2="1421.7056" />
    <linearGradient
       inkscape:collect="always"
       xlink:href="#linearGradient3434"
       id="linearGradient3805"
       gradientUnits="userSpaceOnUse"
       gradientTransform="matrix(0.44910216,0,0,0.33574845,-465.32569,-254.41168)"
       x1="1466.9583"
       y1="1639.5211"
       x2="1466.9581"
       y2="1622.3103" />
    <linearGradient
       inkscape:collect="always"
       xlink:href="#linearGradient3442"
       id="linearGradient3807"
       gradientUnits="userSpaceOnUse"
       gradientTransform="matrix(0.44910216,0,0,0.33574845,-465.32569,-254.41168)"
       x1="1455.5544"
       y1="1638.8879"
       x2="1455.5544"
       y2="1623.5524" />
    <linearGradient
       inkscape:collect="always"
       xlink:href="#linearGradient5104"
       id="linearGradient3820"
       gradientUnits="userSpaceOnUse"
       gradientTransform="matrix(0.19680319,0,0,0.19680319,-96.679151,-27.02778)"
       x1="1282.1143"
       y1="1664.9952"
       x2="1667.4093"
       y2="1666.7496" />
    <linearGradient
       inkscape:collect="always"
       xlink:href="#linearGradient3396"
       id="linearGradient3822"
       gradientUnits="userSpaceOnUse"
       gradientTransform="matrix(0.19680319,0,0,0.19680319,-96.679151,-27.02778)"
       x1="797.46997"
       y1="1651.3101"
       x2="2124.1465"
       y2="1651.3101" />
    <linearGradient
       inkscape:collect="always"
       xlink:href="#linearGradient2824"
       id="linearGradient4638"
       gradientUnits="userSpaceOnUse"
       x1="1393"
       y1="1621"
       x2="1393"
       y2="1503.4989" />
    <radialGradient
       inkscape:collect="always"
       xlink:href="#linearGradient2986"
       id="radialGradient4640"
       gradientUnits="userSpaceOnUse"
       gradientTransform="matrix(0.418495,-0.418495,0.6905167,0.6905167,-260.55107,262.44322)"
       cx="572.375"
       cy="306.61414"
       fx="572.375"
       fy="306.61414"
       r="2.0625" />
  </defs>
  <sodipodi:namedview
     id="base"
     pagecolor="#ffffff"
     bordercolor="#666666"
     borderopacity="1.0"
     inkscape:pageopacity="0.0"
     inkscape:pageshadow="2"
     inkscape:zoom="0.49497475"
     inkscape:cx="239.38082"
     inkscape:cy="366.71096"
     inkscape:document-units="px"
     inkscape:current-layer="g3574"
     showgrid="false"
     inkscape:window-width="1680"
     inkscape:window-height="995"
     inkscape:window-x="0"
     inkscape:window-y="0"
     inkscape:window-maximized="1"
     fit-margin-top="0"
     fit-margin-left="0"
     fit-margin-right="0"
     fit-margin-bottom="0" />
  <metadata
     id="metadata7">
    <rdf:RDF>
      <cc:Work
         rdf:about="">
        <dc:format>image/svg+xml</dc:format>
        <dc:type
           rdf:resource="http://purl.org/dc/dcmitype/StillImage" />
        <dc:title></dc:title>
      </cc:Work>
    </rdf:RDF>
  </metadata>
  <g
     inkscape:label="Layer 1"
     inkscape:groupmode="layer"
     id="layer1"
     transform="translate(-162.23573,-296.40398)">
    <g
       id="g3574"
       transform="translate(157.7589,292.73046)">
      <g
         id="g10002">
        <path
           inkscape:connector-curvature="0"
           d="m 321.26123,303.45149 -26.10524,5.88023 -2.39346,0 -75.56435,-7.56862 c -2.38865,-0.0573 -4.89235,-0.24546 -7.3186,0.0288 -9.91597,1.12099 -27.49482,1.21258 -38.32616,-0.0984 l -7.58427,0.0695 -77.234277,7.49901 -2.156996,0 -24.213985,-5.49686 3.826916,-4.52272 c 1.682595,-1.98853 4.104282,-2.63381 7.375528,-2.92237 l 89.132544,-7.86261 c 1.5116,-0.13334 2.89249,-0.86326 4.10523,-1.87866 l 20.6654,0 35.13812,0 c 1.26586,1.1133 2.8233,1.901 4.94022,2.08742 l 82.56808,7.27114 c 4.41816,0.38908 7.65162,0.72274 10.07826,3.72256 l 3.06704,3.79148 z"
           id="path4533"
           style="fill:url(#linearGradient3820);fill-opacity:1;fill-rule:evenodd;stroke:url(#linearGradient3822);stroke-width:0.19680318px;stroke-linecap:butt;stroke-linejoin:miter;stroke-opacity:1" />
        <g
           transform="matrix(-0.1968032,0,0,0.1968032,543.08607,-27.02778)"
           id="use4535">
          <path
             inkscape:connector-curvature="0"
             d="M 2123.6464,1677.2374 1991,1709.1161 l -12.1617,0 c -13.2886,-23.0381 -30.7954,-28.3174 -55.6847,-30.5825 l -328.2743,-29.8753 c -12.0875,-1.1347 -24.8591,-1.2472 -37.1874,0.1465 -23.0423,2.6049 -66.8662,4.2927 -99.1919,4.5283 l -0.071,-61.8291 153.7749,0 c 6.4321,5.6569 14.3458,9.6594 25.1023,10.6066 l 419.5465,36.9463 c 22.4496,1.977 38.8795,3.6724 51.2098,18.9151 l 15.5843,19.2654 z"
             id="path3029"
             style="fill:url(#linearGradient3736);fill-opacity:1;fill-rule:evenodd;stroke-width:1px;stroke-linecap:butt;stroke-linejoin:miter;stroke-opacity:1" />
          <path
             inkscape:connector-curvature="0"
             d="m 1991.2173,1709.2374 -12.8384,-0.066 c -13.2886,-23.0381 -30.2651,-26.3729 -55.1544,-28.638 l -328.2743,-29.8753 c -12.0907,-1.1003 -24.8591,-1.2472 -37.1874,0.1465 -23.0423,2.6049 -69.6919,3.8549 -99.1919,4.5283 l 0,-12.8291 90.5471,-3.1403 c 16.1323,-0.5595 34.2446,-3.4865 47.1564,-2.3597 l 332.8988,29.0529 c 22.4511,1.9594 41.196,10.3671 51.7098,26.9151 l 10.3343,16.2654 z"
             id="path3031"
             style="fill:url(#linearGradient3738);fill-opacity:1;fill-rule:evenodd;stroke-width:1px;stroke-linecap:butt;stroke-linejoin:miter;stroke-opacity:1" />
          <path
             inkscape:connector-curvature="0"
             d="m 1460.5,1642.504 88.5471,-3.1403 c 16.1319,-0.5721 34.2446,-3.4865 47.1564,-2.3597 l 332.8988,29.0529 c 22.4511,1.9594 41.196,10.3671 51.7098,26.9151 l 10.3343,16.2654"
             id="path3033"
             style="fill:none;stroke:#ffffff;stroke-width:1px;stroke-linecap:butt;stroke-linejoin:miter;stroke-opacity:1;filter:url(#filter3052)" />
          <path
             inkscape:connector-curvature="0"
             d="m 1458.3387,1642.504 92.5471,-3.1403 c 16.1327,-0.5474 34.2446,-3.4865 47.1564,-2.3597 l 332.8988,29.0529 c 22.4511,1.9594 41.196,10.3671 51.7098,26.9151 l 10.3343,16.2654"
             id="path3035"
             style="fill:none;stroke:#ffffff;stroke-width:1.20000005;stroke-linecap:butt;stroke-linejoin:miter;stroke-miterlimit:4;stroke-opacity:1;stroke-dasharray:none;filter:url(#filter3368)" />
        </g>
        <g
           transform="matrix(0.1968032,0,0,0.1968032,-161.46095,-27.02778)"
           id="g4537">
          <path
             inkscape:connector-curvature="0"
             d="M 2123.6464,1677.2374 1991,1709.1161 l -12.1617,0 c -13.2886,-23.0381 -30.7954,-28.3174 -55.6847,-30.5825 l -328.2743,-29.8753 c -12.0875,-1.1347 -24.8591,-1.2472 -37.1874,0.1465 -23.0423,2.6049 -66.8662,4.2927 -99.1919,4.5283 l -0.071,-61.8291 153.7749,0 c 6.4321,5.6569 14.3458,9.6594 25.1023,10.6066 l 419.5465,36.9463 c 22.4496,1.977 38.8795,3.6724 51.2098,18.9151 l 15.5843,19.2654 z"
             id="path4539"
             style="fill:url(#linearGradient3740);fill-opacity:1;fill-rule:evenodd;stroke-width:1px;stroke-linecap:butt;stroke-linejoin:miter;stroke-opacity:1" />
          <path
             inkscape:connector-curvature="0"
             d="m 1991.2173,1709.2374 -12.8384,-0.066 c -13.2886,-23.0381 -30.2651,-26.3729 -55.1544,-28.638 l -328.2743,-29.8753 c -12.0907,-1.1003 -24.8591,-1.2472 -37.1874,0.1465 -23.0423,2.6049 -69.6919,3.8549 -99.1919,4.5283 l 0,-12.8291 90.5471,-3.1403 c 16.1323,-0.5595 34.2446,-3.4865 47.1564,-2.3597 l 332.8988,29.0529 c 22.4511,1.9594 41.196,10.3671 51.7098,26.9151 l 10.3343,16.2654 z"
             id="path4541"
             style="fill:url(#linearGradient3742);fill-opacity:1;fill-rule:evenodd;stroke-width:1px;stroke-linecap:butt;stroke-linejoin:miter;stroke-opacity:1" />
          <path
             inkscape:connector-curvature="0"
             d="m 1460.5,1642.504 88.5471,-3.1403 c 16.1319,-0.5721 34.2446,-3.4865 47.1564,-2.3597 l 332.8988,29.0529 c 22.4511,1.9594 41.196,10.3671 51.7098,26.9151 l 10.3343,16.2654"
             id="path4543"
             style="fill:none;stroke:#ffffff;stroke-width:1px;stroke-linecap:butt;stroke-linejoin:miter;stroke-opacity:1;filter:url(#filter3052)" />
          <path
             inkscape:connector-curvature="0"
             d="m 1458.3387,1642.504 92.5471,-3.1403 c 16.1327,-0.5474 34.2446,-3.4865 47.1564,-2.3597 l 332.8988,29.0529 c 22.4511,1.9594 41.196,10.3671 51.7098,26.9151 l 10.3343,16.2654"
             id="path4545"
             style="fill:none;stroke:#ffffff;stroke-width:1.20000005;stroke-linecap:butt;stroke-linejoin:miter;stroke-miterlimit:4;stroke-opacity:1;stroke-dasharray:none;filter:url(#filter3368)" />
        </g>
        <path
           inkscape:connector-curvature="0"
           d="m 216.41138,291.85104 c 0,1.76158 -11.461,3.18962 -25.59882,3.18962 -14.13783,0 -25.59882,-1.42804 -25.59882,-3.18962 0,-1.76157 11.46099,-3.18961 25.59882,-3.18961 14.13782,0 25.59882,1.42804 25.59882,3.18961 l 0,0 z"
           id="path4547"
           style="fill:url(#linearGradient3805);fill-opacity:1;stroke:url(#linearGradient3807);stroke-width:0.19680315" />
        <path
           inkscape:connector-curvature="0"
           style="fill:url(#linearGradient3802);fill-opacity:1"
           id="path2967"
           d="m 167.86131,290.88809 45.9025,0 c 0.20105,0 0.36292,0.16187 0.36292,0.36292 l 0,8.18816 c 0,0.20105 -46.62834,-3.53821 -46.62834,0 l 0,-8.18816 c 0,-0.20105 0.16187,-0.36292 0.36292,-0.36292 z" />
        <path
           inkscape:connector-curvature="0"
           style="fill:url(#linearGradient3799)"
           id="path4551"
           d="m 167.86131,247.54831 45.9025,0 c 0.20105,0 0.36292,0.16187 0.36292,0.36292 l 0,43.74376 c 0,0.20106 -0.16187,0.36293 -0.36292,0.36293 -15.27551,-0.86505 -30.6264,-0.70847 -45.9025,0 -0.20105,0 -0.36292,-0.16187 -0.36292,-0.36293 l 0,-43.74376 c 0,-0.20105 0.16187,-0.36292 0.36292,-0.36292 z" />
        <path
           inkscape:connector-curvature="0"
           style="fill:none;stroke:url(#linearGradient4638);stroke-width:4;stroke-miterlimit:4;stroke-opacity:1;filter:url(#filter2820)"
           id="path4553"
           clip-path="url(#clipPath2834)"
           d="m 1345.5371,1395.181 233.2406,0 c 1.0217,0 1.8441,0.8225 1.8441,1.8441 l 0,224.2716 c 0,1.0216 -0.8224,1.844 -1.8441,1.844 -78.6737,-4.1708 -156.4524,-4.314 -233.2406,0 -1.0216,0 -1.8441,-0.8224 -1.8441,-1.844 l 0,-224.2716 c 0,-1.0216 0.8225,-1.8441 1.8441,-1.8441 z"
           transform="matrix(0.1968032,0,0,0.1968032,-96.944694,-27.02778)" />
        <path
           inkscape:connector-curvature="0"
           d="m 191.57034,233.76618 c 0.2308,0.23081 0.41553,0.48216 0.54924,0.7342 -0.0351,0.90362 -0.31141,1.38244 -1.80093,1.38506 -0.16328,-0.1103 -0.32335,-0.24175 -0.47459,-0.39298 -1.19987,-1.56603 1.20078,-0.15922 0.87647,-2.33331 0.29027,0.13607 0.58371,0.3409 0.84982,0.60702 z"
           id="path2984"
           style="fill:url(#radialGradient4640);fill-opacity:1;stroke-width:1.25;stroke-linecap:round;stroke-linejoin:round;stroke-miterlimit:4;stroke-opacity:1;stroke-dashoffset:0.5" />
        <use
           transform="matrix(-1,0,0,1,381.62512,4.1606359e-7)"
           id="use3342"
           x="0"
           y="0"
           width="825.92938"
           height="463.36414"
           xlink:href="#path2984" />
        <rect
           width="372.67145"
           height="240.69031"
           rx="1.0517331"
           ry="1.0517331"
           x="4.4768314"
           y="5.4447446"
           id="rect4555"
           style="fill:url(#linearGradient3791);fill-opacity:1" />
        <rect
           width="350.2359"
           height="220.08325"
           rx="1.0517331"
           ry="1.0517331"
           x="15.694613"
           y="15.74828"
           id="rect4557"
           style="fill:url(#linearGradient3788);fill-opacity:1;stroke-width:0.99999994" />
        <rect
           width="372.08105"
           height="1.7712288"
           rx="0.36292049"
           ry="0.36292049"
           x="4.7720361"
           y="3.6735172"
           id="rect4559"
           style="fill:url(#linearGradient3785);fill-opacity:1" />
        <rect
           width="372.08105"
           height="1.7712288"
           rx="0.36292049"
           ry="0.36292049"
           x="4.7720361"
           y="246.24011"
           id="rect4561"
           style="fill:url(#linearGradient3782);fill-opacity:1" />
        <rect
           width="347.59183"
           height="217.634"
           rx="1.0517331"
           ry="1.0517331"
           x="17.016645"
           y="16.972906"
           id="rect4563"
           style="fill:url(#radialGradient3779);fill-opacity:1;stroke-width:0.99999994" />
        <rect
           width="372.08105"
           height="1.7712288"
           rx="0.36292049"
           ry="0.36292049"
           x="4.7720361"
           y="246.24011"
           id="rect4581"
           style="fill:url(#linearGradient3776);fill-opacity:1" />
        <rect
           width="372.08105"
           height="1.7712288"
           rx="0.36292049"
           ry="0.36292049"
           x="4.7720361"
           y="246.24011"
           id="rect4267"
           style="opacity:0.65638769;fill:url(#linearGradient3773);fill-opacity:1" />
      </g>
      <g
         id="g9987"
         transform="matrix(0.32919558,0,0,0.32919558,106.53849,40.500522)">
        <path
           id="path9989"
           d="M 368,128 C 368,189.859 317.875,288 256,288 194.156,288 144,189.859 144,128 144,66.141 160,0 256,0 352,0 368,66.141 368,128 z"
           inkscape:connector-curvature="0" />
        <path
           id="path9991"
           d="M 416,320 H 384 C 360.562,320 340.25,307.25 329.125,288.437 308.063,307.625 283.313,320 256,320 228.719,320 203.969,307.625 182.875,288.437 171.734,307.25 151.453,320 128,320 H 96 c 0,0 -58,16 -96,96 v 64 c 0,17.688 14.313,32 32,32 h 448 c 17.688,0 32,-14.313 32,-32 v -64 c -38,-80 -96,-96 -96,-96 z"
           inkscape:connector-curvature="0" />
      </g>
    </g>
  </g>
</svg>
